<?xml version="1.0" encoding="UTF-8" standalone="no"?>
<!-- (c) ammap.com | SVG map of Senegal - High -->

<svg
   xmlns:amcharts="http://amcharts.com/ammap"
   xmlns:dc="http://purl.org/dc/elements/1.1/"
   xmlns:cc="http://creativecommons.org/ns#"
   xmlns:rdf="http://www.w3.org/1999/02/22-rdf-syntax-ns#"
   xmlns:svg="http://www.w3.org/2000/svg"
   xmlns="http://www.w3.org/2000/svg"
   xmlns:sodipodi="http://sodipodi.sourceforge.net/DTD/sodipodi-0.dtd"
   xmlns:inkscape="http://www.inkscape.org/namespaces/inkscape"
   viewBox="0 0 463.62818 444.75197"
   version="1.1"
   id="svg22"
   sodipodi:docname="faticke.svg"
   width="463.62817"
   height="444.75198"
   inkscape:version="0.92.5 (2060ec1f9f, 2020-04-08)">
  <metadata
     id="metadata26">
    <rdf:RDF>
      <cc:Work
         rdf:about="">
        <dc:format>image/svg+xml</dc:format>
        <dc:type
           rdf:resource="http://purl.org/dc/dcmitype/StillImage" />
        <dc:title></dc:title>
      </cc:Work>
    </rdf:RDF>
  </metadata>
  <sodipodi:namedview
     pagecolor="#ffffff"
     bordercolor="#666666"
     borderopacity="1"
     objecttolerance="10"
     gridtolerance="10"
     guidetolerance="10"
     inkscape:pageopacity="0"
     inkscape:pageshadow="2"
     inkscape:window-width="1366"
     inkscape:window-height="738"
     id="namedview24"
     showgrid="false"
     fit-margin-top="0"
     fit-margin-left="0"
     fit-margin-right="0"
     fit-margin-bottom="0"
     inkscape:zoom="0.3041024"
     inkscape:cx="-77.383153"
     inkscape:cy="475.42649"
     inkscape:window-x="0"
     inkscape:window-y="0"
     inkscape:window-maximized="1"
     inkscape:current-layer="svg22" />
  <defs
     id="defs4">
    <style
       type="text/css"
       id="style2">
			.land
			{
				fill: #CCCCCC;
				fill-opacity: 1;
				stroke:white;
				stroke-opacity: 1;
				stroke-width:0.5;
			}
		</style>
    <amcharts:ammap
       projection="mercator"
       leftLongitude="-17.531313"
       topLatitude="16.691273"
       rightLongitude="-11.341837"
       bottomLatitude="12.307237" />
    <!-- All areas are listed in the line below. You can use this list in your script. -->
    <!--{id:"SN-DK"},{id:"SN-DB"},{id:"SN-FK"},{id:"SN-KE"},{id:"SN-KA"},{id:"SN-KL"},{id:"SN-KD"},{id:"SN-LG"},{id:"SN-MT"},{id:"SN-SE"},{id:"SN-SL"},{id:"SN-TC"},{id:"SN-TH"},{id:"SN-ZG"}-->
  </defs>
  <path
     style="fill:#cccccc;fill-opacity:1;stroke:#ffffff;stroke-width:0.23331201;stroke-opacity:1"
     d="m 235.85808,80.037822 c -7.04649,4.18771 -17.44409,13.86175 -15.66289,22.138798 12.83417,8.90631 -10.97449,16.10837 -8.46699,24.04258 8.41215,1.6807 16.96244,2.45999 25.35995,4.94939 11.40956,-0.9649 24.5768,6.22775 26.27522,16.16056 11.12217,-1.76215 23.69797,-1.35143 30.82837,-12.01417 -4.39094,-11.50761 2.85157,-18.49765 14.03547,-17.672 7.36881,0.5078 23.24895,-6.92794 24.54737,3.46523 1.2263,7.00638 -5.16594,23.68963 7.22597,21.67039 8.31505,0.91809 16.55349,0.52163 24.74212,-1.12506 5.46864,0.88109 3.84924,-5.01095 5.27766,-8.59581 1.30921,-4.36847 0.7471,-9.71076 4.91197,-12.59306 7.47616,-7.91203 14.78508,-15.97557 21.91715,-24.199228 6.09369,2.1011 10.43329,9.486368 17.21175,5.230678 3.06371,-1.47249 9.0519,-1.18353 6.54971,-6.008418 -1.04966,-4.15354 4.37877,-6.00263 7.39581,-7.50226 4.25571,-0.82016 1.15743,-6.73626 5.63706,-7.93088 7.81566,-6.49832 15.63128,-12.99663 23.44695,-19.49494 1.37878,4.71889 7.47999,-1.18105 6.26093,-2.83568 -4.79493,-4.68816 -10.36648,-8.52854 -15.48085,-12.86796 1.3442,-4.86325 2.6884,-9.7265 4.0326,-14.58972 -6.29037,-2.39033 -12.54915,-4.83759 -17.65535,-9.36254 -3.77131,-2.37138 -7.24172,-5.92784 -11.19669,-7.57559 -7.19348,-0.13845 -8.55742,14.04888 -17.81543,6.78809 -10.09985,-5.53439 -18.7385,-13.3644395 -28.15965,-19.96284952 -2.90011,3.07190002 -10.02896,4.27209002 -7.82505,9.58228002 1.23157,10.6151295 -2.89302,21.1610595 -0.32464,31.6707495 1.01525,9.8333 -2.46199,22.19156 -12.02331,26.84761 -8.75974,8.30144 -20.24392,10.53164 -31.76086,12.23829 -7.40168,4.34918 -16.47467,1.7805 -24.27826,4.54549 -3.77895,1.79086 -7.48227,3.39507 -5.92734,-2.88275 -14.30574,-0.15149 -27.83048,-5.6672 -42.13759,-5.89094 -5.858,0.86978 -14.41099,-2.32977 -16.94116,3.77372 z"
     title="Gossas"
     id="path1602"
     inkscape:connector-curvature="0" />
  <path
     style="fill:#cccccc;fill-opacity:1;stroke:#ffffff;stroke-width:0.23331201;stroke-opacity:1"
     d="m 149.58115,224.662 c -7.87993,0.23074 -13.88775,-7.47345 -21.81229,-7.13646 -1.93739,-6.94169 3.97615,-11.57447 -4.57255,-4.50573 -10.32518,5.88525 11.54194,19.78292 -4.93609,17.62711 -6.8771,-2.84515 -13.78178,-6.82877 -12.26583,4.00157 -9.450102,8.5641 -10.584882,27.57572 -26.424342,26.10636 -11.87338,5.65587 -9.90919,25.29494 -24.868415,23.70324 -9.092922,1.75535 -15.111516,-8.64006 -24.147609,-6.3509 6.460507,-3.79961 9.710447,-9.96908 8.92885,-16.18493 9.907656,2.49681 10.114826,-13.50711 14.179083,-12.86422 -6.239272,5.12615 -12.427883,14.06707 -23.108816,10.57267 -3.381348,5.80527 9.918981,12.11823 -2.839964,14.46251 -4.017866,6.88457 -3.618809,15.6376 -12.442581,20.36794 -6.4878409,12.30699 0.472876,27.74417 -1.698471,41.32074 4.720837,7.44051 -5.6279889,17.42011 -3.248532,3.85664 C 9.9084371,325.1292 6.4637721,310.77943 7.6486241,296.47899 14.394518,284.37607 6.0587391,272.66301 5.1083601,261.84905 24.791542,253.91107 -0.71141389,243.04418 0.13759611,233.26538 6.0008391,232.71728 20.303696,232.32504 10.09508,224.06211 c -8.8985139,-9.45418 19.191361,-10.21307 11.450858,-20.82868 -6.854656,-3.47234 -11.063461,-18.00575 -1.511526,-20.64562 13.129209,-7.37741 9.412781,-21.60638 10.187752,-33.67089 4.033365,-8.87131 3.399957,-26.5293 16.141131,-26.7288 6.294669,-0.68168 14.328626,1.15805 17.398423,-6.36666 9.68193,-8.37713 23.85833,-13.00804 29.20711,-26.754828 7.590102,-9.23871 2.6569,-28.34685 14.199192,-32.103 9.89583,0.28828 19.77379,-3.23915 29.58956,-0.2436 12.66319,2.1758 25.29467,-3.15283 33.93776,9.41118 13.07312,-2.086 26.71361,-3.66994 39.75272,-0.92545 8.01077,2.46371 27.57072,6.53798 25.41586,14.83788 -10.0621,5.812 -21.88215,19.15133 -11.70984,29.187198 -3.70976,6.37412 -22.93543,18.53674 -5.03371,18.32264 13.73395,3.67124 29.41289,2.09625 41.16259,11.68351 5.98687,14.08416 -12.30694,4.0995 -19.87399,9.90126 -13.84133,3.91962 -28.00696,7.3142 -42.39915,7.64795 -10.44324,6.91044 -15.52001,19.42756 -24.64954,27.74524 -6.64339,7.28941 -22.86319,9.09659 -18.46956,21.82062 -1.71926,6.62663 7.88011,14.63836 4.31623,14.63881 -3.25974,1.09503 -6.27688,2.82364 -9.6258,3.67113 z"
     title="Fatick"
     id="path1604"
     inkscape:connector-curvature="0" />
  <path
     style="fill:#cccccc;fill-opacity:1;stroke:#ffffff;stroke-width:0.23331201;stroke-opacity:1"
     d="m 259.77064,444.63534 c 1.06008,-5.02534 1.84509,-12.72746 -4.75845,-14.10651 -3.22165,-3.73732 -0.44468,-10.51797 -7.94305,-7.55683 -10.37202,-8.70264 -14.20955,-21.16683 -14.11472,-34.51745 -0.80059,-11.78305 -14.57907,-14.18318 -22.3072,-20.42427 -6.79367,-2.2783 -8.88285,-8.1579 -8.73278,-14.63356 -3.44844,-8.44295 3.02816,-12.18682 10.96399,-13.78767 7.10836,-6.45905 8.55092,-17.92728 8.28939,-27.77123 -1.90453,-10.23214 1.03581,-25.10002 -13.88846,-24.89075 -5.2968,-2.20124 -20.52069,-1.97904 -12.37512,-10.51382 11.37295,-6.4851 19.85253,-18.13592 15.25018,-31.84272 -5.77672,-9.62463 -19.87091,-13.31511 -27.23405,-22.61656 -6.29905,-2.19216 -13.83859,-0.90833 -20.4456,0.4466 -7.23193,10.40907 -19.73474,6.07503 -28.64185,3.93957 -2.92727,12.00786 -20.22639,4.59218 -23.05366,16.65553 -7.21979,7.34691 -12.778362,17.06108 -22.136312,21.8332 -9.35429,-0.4131 -11.95444,11.35367 -0.78104,9.54051 3.66672,-2.23951 12.382792,-4.08828 4.32999,0.74245 -8.37273,0.61653 -10.63144,7.98295 -7.51928,14.60561 -7.01008,-2.42282 -17.50386,-7.01244 -17.90193,5.1622 -0.1492,8.55968 -9.751842,7.15896 -4.32155,-0.40302 -6.0426,-1.89495 -13.532279,-3.67672 -19.82242,-7.4567 -12.159107,1.08617 -25.813131,13.13492 -21.400226,26.35358 -0.630227,8.84132 7.109109,18.86299 -0.05344,26.45511 3.416995,6.75363 2.2735,16.39405 11.086852,19.29188 -0.202781,5.84414 2.213764,18.17272 10.229113,10.74728 1.216573,-8.56713 13.94304,-8.58826 11.055905,-19.21553 6.061492,-8.23866 19.160606,-5.82081 27.373146,-11.76313 4.29153,-2.57093 7.28965,-6.04991 10.32367,-1.39316 9.185042,-5.89383 11.221482,-19.59143 13.881432,-29.81596 7.70797,-6.04135 1.06617,-18.32186 11.72728,-22.62012 -2.02882,9.7671 -1.88335,19.47848 -7.00077,27.78154 2.21124,8.69339 -7.87875,18.30991 3.03597,22.14154 -2.53162,7.9796 -1.94729,14.2585 1.59916,21.35856 4.29098,13.37381 -9.92057,0.26443 -9.8054,-5.50897 -0.57376,-5.3854 -1.02929,-14.46338 -7.511912,-6.9946 -10.59279,-3.20103 0.69607,13.62803 -7.35041,5.86804 -6.55671,-6.74661 -12.17066,8.34029 -17.51985,11.41338 -8.63413,7.21322 -12.474868,17.39184 -10.41463,27.5452 -8.448226,8.4583 2.34926,18.28901 6.52177,25.95637 7.92296,9.37445 19.59783,-4.60165 23.16536,-12.14463 7.69837,7.58741 4.73148,-10.24454 11.513802,-11.97179 -2.29811,-5.77163 -1.3743,-12.48159 6.07317,-6.45444 3.44821,6.82665 -14.157192,16.18531 -1.18438,19.30759 -3.39791,10.92852 -21.821072,6.7191 -25.280862,18.75853 -3.96066,6.98153 2.72323,18.81222 7.71046,21.92278 56.455952,0.1298 112.918112,-0.4765 169.368812,0.57637 z"
     title="Foundiougne"
     id="path1606"
     inkscape:connector-curvature="0" />
</svg>
