<?xml version="1.0" encoding="UTF-8" standalone="no"?>
<!-- (c) ammap.com | SVG map of Senegal - High -->

<svg
   xmlns:amcharts="http://amcharts.com/ammap"
   xmlns:dc="http://purl.org/dc/elements/1.1/"
   xmlns:cc="http://creativecommons.org/ns#"
   xmlns:rdf="http://www.w3.org/1999/02/22-rdf-syntax-ns#"
   xmlns:svg="http://www.w3.org/2000/svg"
   xmlns="http://www.w3.org/2000/svg"
   xmlns:sodipodi="http://sodipodi.sourceforge.net/DTD/sodipodi-0.dtd"
   xmlns:inkscape="http://www.inkscape.org/namespaces/inkscape"
   viewBox="0 0 611.365 495.29912"
   version="1.1"
   id="svg22"
   sodipodi:docname="kaffrin.svg"
   width="611.36499"
   height="495.29913"
   inkscape:version="0.92.5 (2060ec1f9f, 2020-04-08)">
  <metadata
     id="metadata26">
    <rdf:RDF>
      <cc:Work
         rdf:about="">
        <dc:format>image/svg+xml</dc:format>
        <dc:type
           rdf:resource="http://purl.org/dc/dcmitype/StillImage" />
        <dc:title></dc:title>
      </cc:Work>
    </rdf:RDF>
  </metadata>
  <sodipodi:namedview
     pagecolor="#ffffff"
     bordercolor="#666666"
     borderopacity="1"
     objecttolerance="10"
     gridtolerance="10"
     guidetolerance="10"
     inkscape:pageopacity="0"
     inkscape:pageshadow="2"
     inkscape:window-width="1366"
     inkscape:window-height="738"
     id="namedview24"
     showgrid="false"
     fit-margin-top="0"
     fit-margin-left="0"
     fit-margin-right="0"
     fit-margin-bottom="0"
     inkscape:zoom="0.21503287"
     inkscape:cx="-174.16212"
     inkscape:cy="787.5551"
     inkscape:window-x="0"
     inkscape:window-y="0"
     inkscape:window-maximized="1"
     inkscape:current-layer="svg22" />
  <defs
     id="defs4">
    <style
       type="text/css"
       id="style2">
			.land
			{
				fill: #CCCCCC;
				fill-opacity: 1;
				stroke:white;
				stroke-opacity: 1;
				stroke-width:0.5;
			}
		</style>
    <amcharts:ammap
       projection="mercator"
       leftLongitude="-17.531313"
       topLatitude="16.691273"
       rightLongitude="-11.341837"
       bottomLatitude="12.307237" />
    <!-- All areas are listed in the line below. You can use this list in your script. -->
    <!--{id:"SN-DK"},{id:"SN-DB"},{id:"SN-FK"},{id:"SN-KE"},{id:"SN-KA"},{id:"SN-KL"},{id:"SN-KD"},{id:"SN-LG"},{id:"SN-MT"},{id:"SN-SE"},{id:"SN-SL"},{id:"SN-TC"},{id:"SN-TH"},{id:"SN-ZG"}-->
  </defs>
  <path
     style="fill:#cccccc;fill-opacity:1;stroke:#ffffff;stroke-width:0.26087931;stroke-opacity:1"
     d="m 130.83874,447.96856 c 7.05646,-18.45057 28.65074,-20.41515 40.44912,-35.13266 13.99147,-7.79477 11.70727,-22.55177 2.31311,-32.37866 -5.29209,-18.18298 -25.58907,-2.68695 -36.29369,-11.2774 -21.64253,-7.75536 5.56878,-36.35306 -4.9132,-52.2379 -2.11181,-19.40739 -25.19456,-24.16756 -29.28796,-42.74537 -7.290229,-16.23936 -14.349409,-32.5811 -21.607689,-48.83471 2.06777,-5.84523 -0.46989,-23.44547 -2.05046,-33.53195 0.33954,-10.82802 -0.0888,-21.59385 -2.42499,-32.20503 3.29445,-10.46125 -4.7755,-32.43751 10.3698,-33.56074 14.652819,-9.05899 9.82081,-9.94289 28.318549,-12.18699 8.69387,-3.2725 5.1517,7.19889 6.2779,12.42661 -0.97813,7.78519 7.66845,11.62982 11.39918,17.48712 4.12263,4.62544 8.24524,9.25092 12.36787,13.87635 7.6506,-2.86897 22.9518,-8.60693 22.9518,-8.60693 0,0 20.87696,-10.73005 22.49766,-27.04968 6.64781,-4.26447 2.80549,-24.901374 10.41795,-7.44927 11.78819,19.53462 23.57634,39.06932 35.36453,58.60396 l -5.7405,27.53913 c -12.71374,6.24565 -32.08788,9.50729 -34.61048,25.80676 -5.81474,0.14248 -30.26299,-2.18781 -15.63465,6.15807 11.0186,2.53602 9.54812,19.4711 23.54076,14.63636 1.04383,10.52595 -16.34426,26.86816 -11.72774,32.57445 8.30343,-5.70795 15.62804,2.41718 22.94674,5.73285 0.13483,16.55567 0.14859,33.39892 -14.1253,43.74843 -12.83485,5.37317 -15.66279,18.98544 1.55478,13.62348 16.44144,0.0397 30.31777,9.19119 46.27222,11.81069 17.35452,-1.06726 25.42617,19.30297 42.75504,16.3478 16.86621,-5.04933 54.50801,2.1464 54.50801,2.1464 l 3.65319,5.13348 c 0,0 -6.85266,27.57144 0.78238,39.44401 7.65127,12.54073 11.0954,26.87348 9.3353,41.78153 -9.80076,11.02546 -26.12647,19.53726 -39.83846,26.94278 -14.30766,11.14749 -29.9634,5.11226 -43.36303,-3.56648 -17.30419,-5.31677 -35.35792,0.67176 -50.19621,9.31783 -7.81249,1.78896 -17.65031,7.5905 -17.61348,-5.53533 -2.41897,-17.91464 -16.99471,-26.3894 -33.56493,-19.31515 -7.98871,2.92536 -16.92633,-1.33459 -23.59126,-5.8462 -4.13275,-7.09768 -23.17131,-9.05747 -21.49186,-13.67764 z"
     title="Kaffrine"
     id="path1562"
     inkscape:connector-curvature="0"
     sodipodi:nodetypes="ccccccccccccccccccccccccccccccccccccccc" />
  <path
     style="fill:#cccccc;fill-opacity:1;stroke:#ffffff;stroke-width:0.26087931;stroke-opacity:1"
     d="m 81.498431,225.35677 c 9.38946,20.28237 17.454526,41.36931 27.685859,61.14248 5.46271,8.0424 16.17582,11.27321 19.63884,20.50303 3.49401,9.69844 8.93537,20.00271 3.86675,30.11454 -0.60216,9.67394 -6.22057,19.03371 -2.89822,28.5014 4.37564,6.14588 13.00113,1.64405 18.08801,7.70557 8.60798,-4.36779 25.1829,-4.59095 25.89264,8.54823 5.23173,7.57099 13.1791,15.81259 4.20872,24.57181 -7.42154,7.27926 -15.96409,13.54214 -23.61642,20.8179 -8.21582,3.82946 -18.83251,6.81189 -21.12787,17.37195 -3.85856,8.36433 -9.68833,15.49577 -14.42063,23.48655 -2.04128,4.01076 -5.49954,8.17352 -9.26533,10.41639 -11.125949,0.0517 -14.043409,-15.56353 -24.090749,-19.90424 -9.56582,-3.12805 -17.78628,-19.12502 -11.61836,-27.10124 10.02584,-6.6879 12.62211,-23.3933 0.49066,-29.50603 -10.91759,-8.24587 -24.00006,-14.03963 -32.07298,-25.54425 -12.27316,-6.80133 -4.43448,-23.55484 -12.95708,-30.91603 -7.08449,-5.81923 -25.7056408,-2.45894 -23.5450308,-14.93226 -1.14537,-7.40188 -9.61832,-13.01099 -3.32069,-19.99618 3.61522,-5.16161 3.63291,-10.595 2.18397,-16.57991 -0.94517,-8.37267 0.0157,-16.999 4.8001305,-24.1906 8.2365903,-13.30881 12.1147203,-28.64921 17.9261203,-43.06061 18.21856,-0.056 36.43712,-0.11201 54.65567,-0.16802 -0.0943,-6.1976 0.36727,-25.88184 -0.14289,-10.8378 -0.12028,3.18577 -0.24074,6.37154 -0.36111,9.55732 z"
     title="Birkilane"
     id="path1564"
     inkscape:connector-curvature="0" />
  <path
     style="fill:#cccccc;fill-opacity:1;stroke:#ffffff;stroke-width:0.26087931;stroke-opacity:1"
     d="m 344.8461,372.80746 -22.94928,4.01452 c 0,0 -35.57945,1.14777 -49.24775,-11.75891 -9.99362,-10.87528 -26.53858,-9.94824 -39.81754,-14.26829 -11.59023,-10.51087 -34.54657,-3.67839 -42.89749,-10.68656 9.7342,-9.33218 22.56924,-18.60882 25.24545,-30.98848 0.16667,-11.13049 4.9335,-25.69305 -9.15023,-28.96489 -6.82602,-6.41335 -22.42477,6.80222 -11.56139,-8.77989 5.35116,-10.51294 -2.23762,-25.36001 -2.23762,-25.36001 0,0 -28.26448,-16.60721 -9.92995,-20.12714 18.19764,8.49492 15.07929,-14.94743 30.94802,-17.29619 9.04119,-4.61467 21.12333,-6.17414 20.2712,-18.81905 0.41235,-6.05235 4.40671,-12.71505 2.41632,-18.35795 -13.26274,-21.41299 -25.77926,-43.91737 -39.57864,-64.54357 -0.11792,17.12951 -16.96805,35.21304 -16.96805,35.21304 0,0 -15.53682,9.39527 -24.92295,12.2994 -6.2324,4.10412 -11.21175,3.13169 -14.78403,-3.54089 -5.59215,-6.95099 -12.98517,-13.21583 -17.45292,-20.59515 -1.83904,-4.75195 1.51028,-15.6993 -4.76141,-15.6225 -30.041199,0.3256 -12.47212,3.5896 -7.44654,-10.1113 0.23958,-7.038504 8.84898,-9.436204 13.00504,-14.303104 7.31697,-6.0837 21.95106,-18.2511 21.95106,-18.2511 l 6.09691,-5.9187 -18.19143,-14.6835 c 0,0 2.79855,-12.204 4.19781,-18.3059 -4.08763,6.9844 5.83201,-13.7547 12.24218,-10.0453 10.48587,-4.7339 24.32255,-18.285 35.2976,-12.9474 7.55536,10.8062 6.15017,-18.5182 18.06395,-7.3431 18.35515,11.7897 36.31278,24.5525 54.91556,35.736 48.72193,9.5188 97.44385,19.0377 146.16577,28.5566 -1.05265,3.2991 -3.57228,11.6327 -5.18712,16.8611 -6.10071,20.739404 -13.19543,41.365254 -18.68146,62.174864 2.13791,34.27864 5.34276,68.51994 6.81255,102.82198 -5.74644,14.96834 -16.20948,27.59447 -26.39102,39.59294 -6.8377,11.98569 -4.11068,26.31192 -5.91236,39.52285 0.12471,12.46064 -12.0331,34.21636 -12.0331,34.21636 l 2.71058,10.48959 z"
     title="Malem Hoddar"
     id="path1566"
     inkscape:connector-curvature="0"
     sodipodi:nodetypes="cccccccccccccccccccccccccccccccccccccc" />
  <path
     style="fill:#cccccc;fill-opacity:1;stroke:#ffffff;stroke-width:0.26087931;stroke-opacity:1"
     d="m 359.19352,463.30623 c 14.82995,-9.37897 32.41436,-5.58197 46.48405,3.21518 16.70572,8.57193 34.31341,2.83894 52.03619,4.8979 12.24197,0.60588 36.17743,20.34619 33.46455,17.97288 6.88492,-21.56616 31.24681,-21.72577 50.21516,-22.77342 17.06899,-7.67485 -0.007,-38.15495 23.63356,-43.63664 12.66508,-12.40706 35.30577,-16.82928 38.42431,-36.92299 8.66995,-16.85404 3.55633,-35.3902 2.15411,-53.38403 -1.72463,-17.9206 11.02438,-32.93325 2.89404,-51.39588 -3.00174,-14.9273 2.01834,-33.94443 -9.93157,-45.42689 -3.49591,-5.79905 -11.57528,-10.13931 -12.02608,-16.90757 1.82395,-42.66941 2.32254,-85.4465 5.5378,-127.981924 -17.64574,-7.0881 -41.45616,3.8931 -55.91087,-9.4047 -5.6728,-14.5681 -25.21576,-10.866 -37.32708,-16.9664 -14.04464,-0.8594 -10.35821,-5.6396 -10.85774,-15.4349 -5.20684,-6.4418 -20.01471,-12.4929 -29.74322,-18.9928 -5.67522,-11.5542 -12.84324,-2.075 -20.31467,2.2107 -8.73945,6.2228 -18.77511,11.338 -26.72609,18.2344 -2.51743,5.9407 -6.44508,13.6023 -7.89175,17.944 -7.65399,25.8793 -16.38786,51.635234 -23.37155,77.591064 2.14004,34.24937 5.32981,68.46191 6.80362,102.73462 -5.47992,17.30903 -20.09068,29.22846 -28.60291,44.46564 -4.02208,12.23978 -2.35141,25.80826 -3.94611,38.61503 3.40823,13.61473 -13.50545,31.68511 -13.50545,31.68511 0,0 1.9807,9.02048 10.10322,12.46199 -12.49731,12.82994 -7.57478,30.22923 1.39623,43.90786 7.85465,11.96987 10.292,29.7043 7.77623,41.92883 l -0.54304,0.96374 z"
     title="Koungheul"
     id="path1568"
     inkscape:connector-curvature="0"
     sodipodi:nodetypes="ccccccccccccccccccccccccccccc" />
</svg>
