<?xml version="1.0" encoding="UTF-8" standalone="no"?>
<!-- (c) ammap.com | SVG map of Senegal - High -->

<svg
   xmlns:amcharts="http://amcharts.com/ammap"
   xmlns:dc="http://purl.org/dc/elements/1.1/"
   xmlns:cc="http://creativecommons.org/ns#"
   xmlns:rdf="http://www.w3.org/1999/02/22-rdf-syntax-ns#"
   xmlns:svg="http://www.w3.org/2000/svg"
   xmlns="http://www.w3.org/2000/svg"
   xmlns:sodipodi="http://sodipodi.sourceforge.net/DTD/sodipodi-0.dtd"
   xmlns:inkscape="http://www.inkscape.org/namespaces/inkscape"
   viewBox="0 0 611.365 382.17751"
   version="1.1"
   id="svg22"
   sodipodi:docname="kedougu.svg"
   width="611.36499"
   height="382.17752"
   inkscape:version="0.92.5 (2060ec1f9f, 2020-04-08)">
  <metadata
     id="metadata26">
    <rdf:RDF>
      <cc:Work
         rdf:about="">
        <dc:format>image/svg+xml</dc:format>
        <dc:type
           rdf:resource="http://purl.org/dc/dcmitype/StillImage" />
        <dc:title></dc:title>
      </cc:Work>
    </rdf:RDF>
  </metadata>
  <sodipodi:namedview
     pagecolor="#ffffff"
     bordercolor="#666666"
     borderopacity="1"
     objecttolerance="10"
     gridtolerance="10"
     guidetolerance="10"
     inkscape:pageopacity="0"
     inkscape:pageshadow="2"
     inkscape:window-width="1366"
     inkscape:window-height="738"
     id="namedview24"
     showgrid="false"
     fit-margin-top="0"
     fit-margin-left="0"
     fit-margin-right="0"
     fit-margin-bottom="0"
     inkscape:zoom="0.21503287"
     inkscape:cx="-296.27252"
     inkscape:cy="524.37161"
     inkscape:window-x="0"
     inkscape:window-y="0"
     inkscape:window-maximized="1"
     inkscape:current-layer="svg22" />
  <defs
     id="defs4">
    <style
       type="text/css"
       id="style2">
			.land
			{
				fill: #CCCCCC;
				fill-opacity: 1;
				stroke:white;
				stroke-opacity: 1;
				stroke-width:0.5;
			}
		</style>
    <amcharts:ammap
       projection="mercator"
       leftLongitude="-17.531313"
       topLatitude="16.691273"
       rightLongitude="-11.341837"
       bottomLatitude="12.307237" />
    <!-- All areas are listed in the line below. You can use this list in your script. -->
    <!--{id:"SN-DK"},{id:"SN-DB"},{id:"SN-FK"},{id:"SN-KE"},{id:"SN-KA"},{id:"SN-KL"},{id:"SN-KD"},{id:"SN-LG"},{id:"SN-MT"},{id:"SN-SE"},{id:"SN-SL"},{id:"SN-TC"},{id:"SN-TH"},{id:"SN-ZG"}-->
  </defs>
  <path
     style="fill:#cccccc;fill-opacity:1;stroke:#ffffff;stroke-width:0.21180558;stroke-opacity:1"
     d="m 36.803154,259.35298 c 19.1857,4.70255 13.9262,-23.15917 22.752,-29.4162 7.1268,-2.46867 9.0417,-18.64902 16.3837,-13.56991 -11.4983,15.53445 20.3386,2.26493 22.9223,17.39708 8.873596,-11.16738 26.969296,0.64732 26.969296,0.64732 0,0 21.9849,18.88272 36.6496,16.76728 15.0293,8.22671 7.9524,-13.12004 23.9109,-10.83376 6.3,-9.49118 14.9568,-0.19435 14.9496,7.69833 19.3993,0.006 -5.578,26.18023 15.6219,30.18484 20.9685,4.0913 0.3485,33.48052 16.3687,44.27787 12.7399,5.86888 18.4702,23.89179 36.3573,20.42729 6.8004,12.74105 -1.8431,26.90723 11.2573,37.45511 11.5337,6.52789 23.284,-7.83698 35.2928,-10.63438 18.6435,-3.47196 35.2766,-5.84851 47.1524,-22.67865 14.4058,-9.08244 22.8832,5.72705 36.2812,5.98587 14.6177,-6.40605 31.5459,-13.29338 42.0608,-5.74701 14.8984,-26.04022 32.4871,-50.84758 46.83809,-76.956 -12.64849,-15.66094 -30.35779,-25.29624 -50.20939,-25.76648 -13.2582,-0.53248 -46.402,6.50818 -43.3183,-13.00021 -12.5006,-11.43903 -16.8652,-29.57662 -32.2127,-35.50993 -7.4201,-2.86857 -20.0603,2.06344 -21.9358,-5.97538 -5.7804,-24.77615 -29.3715,-17.4021 -35.6711,-36.91472 -10.1669,-0.71603 -13.6279,-12.89946 -21.2273,-1.85125 -24.0619,10.84721 -5.8694,-22.23188 -19.5015,-30.98292 -14.4674,-2.4517 -18.9146,-12.37382 -19.167,-26.351333 -8.7368,-13.03266 -27.3223,7.917183 -36.645,-9.58052 -9.0619,10.19078 -36.7634,3.59897 -27.3411,25.392963 -6.2619,8.90785 -16.6395,22.52408 -16.6395,22.52408 0,0 -15.7232,11.97575 -29.0358,11.20867 -5.4887,20.407 -29.7974,-6.21334 -39.083496,-13.04342 -16.6266,-9.08702 -33.4233,5.56211 -47.5368,8.34647 -9.6498,11.52696 -26.5635,-16.08737 -41.6921999,-3.46937 -4.4253,9.04409 -14.1161001,13.6092 0.5658,20.07874 7.4158999,7.57362 31.0240999,21.12366 16.4376999,32.24718 -7.1018,3.78072 4.8895,21.05521 4.8895,21.05521 0,0 22.803,3.68368 9.92,12.13179 -12.0642,13.08502 3.2674,29.77967 -2.3639,38.45535 z"
     title="Kédougou"
     id="path1554"
     inkscape:connector-curvature="0"
     sodipodi:nodetypes="cccccccccccccccccccsscccccccccccccccc" />
  <path
     style="fill:#cccccc;fill-opacity:1;stroke:#ffffff;stroke-width:0.21180558;stroke-opacity:1"
     d="m 273.63105,358.48969 c -0.2074,-8.98764 -2.638,-20.00581 -14.1539,-16.2956 -11.5529,1.9589 -10.656,-15.36214 -20.6126,-14.83075 -8.7285,-5.66237 -15.1787,-17.02909 -11.9038,-27.97906 0.6645,-6.89703 0.9995,-20.62974 -8.0892,-20.88408 -10.1637,-2.52162 -16.1913,-14.0849 -8.9383,-22.96628 2.8887,-10.4999 -15.0808,-3.59359 -10.5633,-15.3044 -1.8227,-6.12863 -12.3323,-3.66199 -14.3717,0.83168 -7.6895,-0.85311 -13.4367,3.85723 -10.9994,11.74847 -5.8567,0.6945 -10.4933,-2.61703 -16.3597,-1.63282 -10.1226,-0.23187 -19.0858,-6.53441 -26.2967,-13.11979 -4.6912,-3.90704 -11.2366,-4.13122 -10.0497,-12.41353 -9.5257,-6.96048 -16.3563,5.74551 -23.385596,7.9707 -3.0129,-7.60001 -10.5058,-14.10921 -19.1012,-13.53086 -7.939,-11.65574 -2.2616,-19.22453 -14.9608,5.63866 -4.235,1.45675 -4.5049,5.12632 -9.0637,7.50046 0.6876,9.28428 -1.3826,23.42511 -11.5782,26.12532 -7.9133,-2.16567 -12.0031,4.79168 -11.0971,12.24644 -2.9694,0.20286 9.7501,2.84438 11.903,5.5185 4.3432,-2.96456 8.1441,-7.407 10.2837,0.24938 7.7894,7.13027 3.6573,20.20222 -0.9923,28.32701 -3.7532,5.5745 -2.9725,19.458 5.6637,21.88783 10.3488,-6.13034 21.5912,6.99966 30.2315,1.47602 5.7044,-3.08812 5.9189,-7.87422 6.334,-13.61157 -0.3796,-7.29584 8.236496,-12.28983 14.727496,-9.77434 5.4209,1.62839 10.1481,7.79194 16.0491,9.50332 -1.4751,7.87028 7.378,11.00738 13.6248,12.77891 8.5782,-4.01913 13.4527,5.3309 14.4239,12.54517 7.1862,3.93391 14.877,-0.005 22.4383,0.63803 7.6286,0.40257 18.6637,-2.41191 23.1608,5.645 4.4077,5.88133 11.8434,7.37101 15.0045,14.79742 6.5545,3.98517 12.5936,-4.1643 18.1788,-7.33863 7.6901,-4.39831 17.8922,-1.26461 24.8107,3.76161 5.7401,0 17.0742,13.76724 15.6829,0.49178 z"
     title="Salémata"
     id="path1556"
     inkscape:connector-curvature="0"
     sodipodi:nodetypes="cccccccccccccccccccccccccccccccccc" />
  <path
     style="fill:#cccccc;fill-opacity:1;stroke:#ffffff;stroke-width:0.21180558;stroke-opacity:1"
     d="m 441.08385,349.97536 c 12.5343,6.00715 27.7118,5.27539 41.34276,5.36151 15.86868,-2.28081 27.16199,-15.59354 44.74147,-12.1371 13.87001,-6.5871 30.16463,-5.17697 45.40341,-4.85055 9.56883,3.11419 31.2803,18.57159 26.21001,-1.24991 11.84175,-6.87401 11.65892,-22.90108 -0.88065,-27.08557 1.60549,-13.31528 -17.69051,-1.38631 -14.02813,-5.75162 -10.35442,-5.65915 13.68221,-1.87537 7.23998,-14.96245 -10.25753,-6.57941 5.53172,-15.71628 -5.66055,-25.3403 -11.43572,-0.28853 9.8654,-25.37032 3.45599,-16.41933 17.95421,4.03285 13.9058,-10.74246 9.65736,-19.57848 2.82155,-10.47136 -2.83129,-20.8498 -5.21287,-23.55574 3.56837,-6.89511 4.636,-19.09851 4.636,-19.09851 0,0 20.71107,-3.66949 10.38601,-17.12244 3.9032,-11.71041 -17.33815,-8.93177 -17.33815,-8.93177 0,0 4.32909,-10.91988 -1.96234,-16.9808 -7.50414,-8.70509 -1.71977,-28.06831 -21.26951,-25.08179 -8.8578,-8.04221 -11.15809,-15.73698 -7.33521,-26.361463 -2.93804,-7.95323 -20.8676,-4.00332 -9.73785,-16.32117 7.20923,-17.12187 -21.65966,-19.53745 -20.76741,-35.72935 3.68177,-14.734391 -15.33341,-2.033131 -10.16993,-15.515861 -6.39306,-10.24759 -22.3041,6.64236 -26.22831,-8.14041 -17.50838,-10.8385199 -20.45398,10.17565 -25.71088,20.92146 -6.5889,2.981661 -14.3623,21.834361 -15.6318,2.224121 -10.2796,-10.544101 -11.7273,-20.728281 -25.367,-11.264171 -15.9646,-1.71823 -22.201,23.897991 -36.8885,19.361621 -0.9086,-9.015011 3.7686,-21.103281 -9.5741,-14.557911 -17.7484,-6.44922 -31.4427,-18.09726 -47.5767,-26.8741099 -9.487,-6.54476 -15.5529,-8.1385 -14.0976,6.2181499 -19.8562,11.97806 28.3441,31.415051 -1.6013,36.775091 -9.3184,-0.4725 -19.4287,-4.01032 -19.3682,9.29384 -6.5766,21.78705 -19.1953,-11.59594 -34.3733,-0.79394 -6.7751,10.28734 -19.5655,14.25988 -20.5159,29.33603 -10.0581,5.95576 11.0152,9.90988 4.6517,20.913603 1.2452,14.27435 26.3973,9.46397 23.1805,28.59117 0.1628,7.93344 -4.3462,23.23707 9.7015,16.89121 8.036,-1.25667 10.9063,-12.39082 16.7679,-0.96291 12.8403,0.10407 13.5071,17.98479 27.1356,17.24091 12.329,0.93824 15.7573,13.08707 18.235,23.06845 14.2917,0.51893 32.1878,6.57204 35.0719,23.17585 10.8088,4.35337 16.8137,16.87642 18.5112,23.95962 15.4408,16.22846 41.8971,-2.2387 59.3423,9.77475 12.1352,1.74836 33.22971,13.68836 31.28656,26.32501 -15.77096,24.75581 -31.37546,49.61844 -47.08206,74.41557 l 0.9096,0.52469 z"
     title="Saraya"
     id="path1558"
     inkscape:connector-curvature="0"
     sodipodi:nodetypes="cccccccccccccccccccccccccccccccccccccccccccccc" />
</svg>
