<?xml version="1.0" encoding="UTF-8" standalone="no"?>
<!-- (c) ammap.com | SVG map of Senegal - High -->

<svg
   xmlns:amcharts="http://amcharts.com/ammap"
   xmlns:dc="http://purl.org/dc/elements/1.1/"
   xmlns:cc="http://creativecommons.org/ns#"
   xmlns:rdf="http://www.w3.org/1999/02/22-rdf-syntax-ns#"
   xmlns:svg="http://www.w3.org/2000/svg"
   xmlns="http://www.w3.org/2000/svg"
   xmlns:sodipodi="http://sodipodi.sourceforge.net/DTD/sodipodi-0.dtd"
   xmlns:inkscape="http://www.inkscape.org/namespaces/inkscape"
   viewBox="0 0 561.93019 444.752"
   version="1.1"
   id="svg22"
   sodipodi:docname="matame.svg"
   width="561.93018"
   height="444.75201"
   inkscape:version="0.92.5 (2060ec1f9f, 2020-04-08)">
  <metadata
     id="metadata26">
    <rdf:RDF>
      <cc:Work
         rdf:about="">
        <dc:format>image/svg+xml</dc:format>
        <dc:type
           rdf:resource="http://purl.org/dc/dcmitype/StillImage" />
        <dc:title></dc:title>
      </cc:Work>
    </rdf:RDF>
  </metadata>
  <sodipodi:namedview
     pagecolor="#ffffff"
     bordercolor="#666666"
     borderopacity="1"
     objecttolerance="10"
     gridtolerance="10"
     guidetolerance="10"
     inkscape:pageopacity="0"
     inkscape:pageshadow="2"
     inkscape:window-width="1366"
     inkscape:window-height="738"
     id="namedview24"
     showgrid="false"
     fit-margin-top="0"
     fit-margin-left="0"
     fit-margin-right="0"
     fit-margin-bottom="0"
     inkscape:zoom="0.21503287"
     inkscape:cx="-648.8898"
     inkscape:cy="556.39774"
     inkscape:window-x="0"
     inkscape:window-y="0"
     inkscape:window-maximized="1"
     inkscape:current-layer="svg22" />
  <defs
     id="defs4">
    <style
       type="text/css"
       id="style2">
			.land
			{
				fill: #CCCCCC;
				fill-opacity: 1;
				stroke:white;
				stroke-opacity: 1;
				stroke-width:0.5;
			}
		</style>
    <amcharts:ammap
       projection="mercator"
       leftLongitude="-17.531313"
       topLatitude="16.691273"
       rightLongitude="-11.341837"
       bottomLatitude="12.307237" />
    <!-- All areas are listed in the line below. You can use this list in your script. -->
    <!--{id:"SN-DK"},{id:"SN-DB"},{id:"SN-FK"},{id:"SN-KE"},{id:"SN-KA"},{id:"SN-KL"},{id:"SN-KD"},{id:"SN-LG"},{id:"SN-MT"},{id:"SN-SE"},{id:"SN-SL"},{id:"SN-TC"},{id:"SN-TH"},{id:"SN-ZG"}-->
  </defs>
  <path
     inkscape:connector-curvature="0"
     title="Kanel"
     id="path1518"
     d="m 401.72471,393.35565 c 23.3515,4.16398 46.5408,9.67688 69.868,13.65168 15.9007,-1.92521 31.8651,-3.52817 47.7262,-5.65472 8.1333,-12.8369 17.4117,-24.9949 24.8895,-38.19476 5.5078,-15.8169 12.4389,-31.27243 17.624,-47.096 -0.5863,-14.37597 -13.2125,-23.44805 -19.7756,-35.12212 -7.8013,-4.03309 -6.74,-16.83817 -13.7266,-16.41557 -8.462,-7.51511 -21.6021,-10.38034 -18.0151,-23.87667 -4.9686,-12.45348 -16.2006,4.26626 -20.2416,-7.91222 -9.3754,-8.84891 -3.0969,-1.1443 4.9019,-2.52021 12.6784,-11.57136 -5.1093,-27.35929 -17.8467,-27.09333 -9.6515,-5.05471 -2.0895,-15.59727 -0.7561,-22.51286 -6.0622,-3.47172 -8.6643,-3.24868 -8.2125,-11.16924 -1.4023,-19.0562 -23.2459,9.96367 -32.6681,-3.90571 -0.2766,-7.82204 6.0346,-23.37101 -8.7641,-25.96465 -8.013,-8.07181 -8.4108,3.90367 -11.3192,9.17585 -2.266,7.90601 -7.0969,14.44618 -10.7875,21.65052 5.5829,4.67012 -7.2097,5.02308 -10.752,7.74658 -7.2885,2.80246 -14.5289,5.7405 -21.8464,8.46143 -6.2007,7.48344 -15.2924,14.45778 -17.4226,25.47958 -6.444,5.72085 -12.1255,13.52845 -17.1086,17.60184 -9.455,10.04551 -23.1647,17.28475 -23.9878,33.12525 -4.5063,5.30322 -27.1621,5.13242 -17.5634,13.1454 9.6331,4.01886 18.2484,11.87047 26.7204,18.13186 5.0043,8.15471 20.386,11.33472 17.1606,22.38974 -10.4712,9.25104 -4.7825,22.42535 -10.0373,34.20134 -1.6765,10.37821 -15.7798,16.95289 -5.6751,27.25761 0.065,7.0151 -3.1215,14.52397 0.4418,20.97269 -0.4955,10.40136 3.5382,19.96417 3.9533,30.2032 -2.1358,10.47608 3.7578,19.51551 11.5931,9.43225 20.5425,-15.06292 41.085,-30.12588 61.6275,-45.18876 z"
     style="fill:#cccccc;fill-opacity:1;stroke:#ffffff;stroke-width:0.19427352;stroke-opacity:1" />
  <path
     inkscape:connector-curvature="0"
     title="Matam"
     id="path1520"
     d="m 349.21951,219.60086 c 6.3521,-7.84234 8.6034,-18.32602 15.7453,-26.01035 7.7293,-8.26097 19.4714,-10.40791 29.3583,-15.31365 2.9539,-2.35688 14.6593,-3.72957 10.6624,-6.74328 0.715,-6.67204 7.4059,-12.20062 9.1066,-19.17546 2.1548,-5.1993 4.3098,-10.39858 6.4647,-15.59787 -5.4908,-5.67715 -14.3622,-5.75019 -19.5871,-2.82652 -2.1375,-4.66272 -7.2357,-11.12481 0.6925,-8.51153 13.8853,-10.3587 -7.835,-19.39809 -14.0831,-27.08258 -2.9921,-3.506211 10.6762,-1.66764 3.4549,-8.145191 -10.9251,-5.0968 -2.303,-20.0066 -13.6402,-24.04647 10.8224,-10.91262 -14.8072,-14.6436 -9.7738,-27.20829 5.0654,-12.4926 -4.0796,-20.56968 -16.2057,-22.1098 -7.3807,-5.59822 -11.2422,-24.6933703 -22.315,-13.0239803 -11.3332,-5.45702 -20.9264,2.5881899 -30.9075,5.3781899 -6.2845,0.35859 -10.4174,4.7916404 -13.2687,-3.91577 -4.9744,-0.8429599 -3.3447,7.0274904 -5.2496,10.2344404 -1.5495,4.51142 -1.8102,10.1872 -4.1739,13.96306 -7.6694,2.81564 -15.3388,5.63125 -23.0082,8.44686 -2.3296,8.26898 -9.8642,13.03393 -15.2148,19.26921 -28.937,29.48921 -56.6792,60.128901 -85.5306,89.695571 9.5398,4.79109 23.5078,4.05656 34.6477,6.5408 20.375,2.37792 40.9411,4.42573 61.4474,3.74505 11.5437,2.1912 20.7026,11.44973 27.9554,20.02241 9.2145,6.68995 16.5397,16.4791 26.9833,21.12484 9.696,1.37587 17.9599,8.27676 27.0313,12.56844 5.7884,3.15419 11.5769,6.30836 17.3653,9.46255 l 1.2259,-0.29056 z"
     style="fill:#cccccc;fill-opacity:1;stroke:#ffffff;stroke-width:0.19427352;stroke-opacity:1" />
  <path
     inkscape:connector-curvature="0"
     title="Ranérou Ferlo"
     id="path1522"
     d="m 298.90391,444.20565 c -14.7973,-0.064 -29.8249,0.81486 -44.5204,0.12616 -39.3821,-15.11269 -78.5995,-30.67831 -118.0866,-45.50215 -8.6867,1.4593 -17.3444,2.80492 -26.1059,1.73812 -6.1311,0.71905 -12.9442,-0.49404 -17.5513,4.54402 -15.1489,1.33221 -30.242296,-0.22019 -45.189396,-2.45029 -17.6053,2.54774 -26.6145,-13.33381 -44.4729999,-14.00293 1.5268,-12.00734 11.0233999,-22.32186 11.4101999,-35.98274 -5.8840999,-13.01339 26.6903,-19.60098 15.2996,-26.56117 -14.6999,4.82071 -20.1781999,-14.90723 -27.4297999,-24.51375 -7.3015,-18.28288 4.6449,-40.7224 24.7498999,-40.68499 6.4064,-0.33151 4.368,-10.58984 14.3894,-6.00652 10.0592,-1.35526 22.0991,0.5438 28.748096,4.90663 8.4589,-19.87541 13.863,-40.9051 20.2314,-61.51587 -9.2138,1.00193 -18.6988,3.64539 -27.742996,3.62029 -11.0094,-5.12343 -21.4022,-12.27304 -32.7985,-16.12434 -13.1902,1.23635 -7.7215,-6.24146 -1.0925,-11.10125 8.2911,-5.35341 -3.8935,-14.30611 1.0459,-22.39255 1.3244,-9.56986 2.649,-19.13971 3.9735,-28.70957 11.2312,0.87977 16.4217,-9.10902 24.4669,-14.9359 8.833096,-6.91634 16.576196,-15.687091 26.091496,-21.442791 11.4241,15.167061 18.7072,33.098311 28.1832,49.542291 -0.2454,6.07925 1.8425,11.89728 -1.5235,17.59332 -0.4116,5.26963 0.067,13.61311 -0.2092,17.05347 6.8898,-0.24559 14.5367,1.5822 20.982,0.11933 4.4913,-4.41655 8.3548,-9.67836 13.848,-4.54396 7.0723,-0.39505 7.459,-9.39842 6.3215,-14.8713 6.3776,-8.61807 31.4751,3.83737 44.56,2.54586 19.5095,3.59091 40.0943,0.009 59.0566,4.82561 16.6562,10.56096 27.9503,27.30509 44.7674,37.80115 16.6816,5.07338 31.1809,14.98574 46.567,22.89692 -7.0676,9.31923 -15.8238,17.74477 -25.7773,23.28697 -4.4625,14.52887 -9.7728,25.88934 -27.0465,26.95599 -1.9341,7.77199 15.2233,9.40157 19.7267,17.16664 8.3766,8.63285 27.2295,15.56433 25.6496,29.62034 -10.0583,9.60741 -5.3075,26.1776 -10.6821,38.62871 -11.7662,8.14333 -6.5196,16.39704 -5.0796,27.11433 -2.3944,8.72056 1.524,16.35034 1.3222,24.97492 4.4184,10.98846 0.5787,25.41311 6.8105,34.88476 -4.211,3.65903 -12.8512,0.58232 -18.8592,1.50873 -4.6778,-0.0373 -9.3555,-0.0751 -14.0333,-0.11253 z"
     style="fill:#cccccc;fill-opacity:1;stroke:#ffffff;stroke-width:0.19427352;stroke-opacity:1" />
</svg>
